ESR/data/DPPHdc.csv

Model,DPO2012B
Firmware Version,1.52

Point Format,Y,
Horizontal Units,S,
Horizontal Scale,0.004,
Sample Interval,3.2e-07,
Filter Frequency,1e+08,
Record Length,125000,
Gating,0.0% to 100.0%,0.0% to 100.0%
Probe Attenuation,1,1
Vertical Units,V,V
Vertical Offset,0,0
Vertical Scale,0.01,0.1
Label,,
TIME,CH1,CH2
-2.00000e-02,0.0518406,0.328203
-1.99997e-02,0.0517437,0.323453
-1.99994e-02,0.0512781,0.328813
-1.99990e-02,0.0514766,0.325906
-1.99987e-02,0.0510594,0.32475
-1.99984e-02,0.0513859,0.328266
-1.99981e-02,0.0515,0.326359
-1.99978e-02,0.0513937,0.325156
-1.99974e-02,0.0510672,0.326125
-1.99971e-02,0.0512078,0.324953
-1.99968e-02,0.0513437,0.328094
-1.99965e-02,0.0513016,0.325297
-1.99962e-02,0.0515891,0.327031
-1.99958e-02,0.0518062,0.321781
-1.99955e-02,0.05115,0.328609
-1.99952e-02,0.0515531,0.321703
-1.99949e-02,0.0518047,0.327469
-1.99946e-02,0.0514953,0.324531
-1.99942e-02,0.0511359,0.325078
-1.99939e-02,0.0513016,0.325188
-1.99936e-02,0.0517812,0.323766
-1.99933e-02,0.0515937,0.326172
-1.99930e-02,0.0515609,0.324406
-1.99926e-02,0.0515969,0.325094
-1.99923e-02,0.0514734,0.322297
-1.99920e-02,0.0515859,0.324734
-1.99917e-02,0.0515984,0.325406
-1.99914e-02,0.0515375,0.319781
-1.99910e-02,0.0517937,0.329188
-1.99907e-02,0.0515469,0.322875
-1.99904e-02,0.0515625,0.322813
-1.99901e-02,0.0512844,0.328
-1.99898e-02,0.051325,0.324297
-1.99894e-02,0.0515234,0.326828
-1.99891e-02,0.0517703,0.327609
-1.99888e-02,0.051825,0.320922
-1.99885e-02,0.0514016,0.326344
-1.99882e-02,0.0514906,0.326047
-1.99878e-02,0.0513094,0.327375
-1.99875e-02,0.0514578,0.325703
-1.99872e-02,0.0514891,0.327422
-1.99869e-02,0.0513797,0.324266
-1.99866e-02,0.0520812,0.329125
-1.99862e-02,0.0514594,0.325203
-1.99859e-02,0.0514281,0.325375
-1.99856e-02,0.0517,0.330578
-1.99853e-02,0.0515484,0.326578
-1.99850e-02,0.0516828,0.328
-1.99846e-02,0.0511891,0.325109
-1.99843e-02,0.0512859,0.326797
-1.99840e-02,0.0519187,0.327234
-1.99837e-02,0.0519844,0.327125
-1.99834e-02,0.0516437,0.326016
-1.99830e-02,0.0509875,0.323609
-1.99827e-02,0.0515984,0.328781
-1.99824e-02,0.0513766,0.324109
-1.99821e-02,0.0511219,0.32675
-1.99818e-02,0.0514891,0.325094
-1.99814e-02,0.0517187,0.325922
-1.99811e-02,0.0513281,0.325891
-1.99808e-02,0.0513516,0.324344
-1.99805e-02,0.0515625,0.323578
-1.99802e-02,0.0511187,0.323766
-1.99798e-02,0.0509312,0.325422
-1.99795e-02,0.0518,0.323531
-1.99792e-02,0.0512859,0.325703
-1.99789e-02,0.0507594,0.324516
-1.99786e-02,0.0516469,0.321188
-1.99782e-02,0.0514516,0.327516
-1.99779e-02,0.0510047,0.325984
-1.99776e-02,0.0511875,0.325953
-1.99773e-02,0.0510547,0.324422
-1.99770e-02,0.0512109,0.323688
-1.99766e-02,0.0518172,0.323953
-1.99763e-02,0.0517344,0.324984
-1.99760e-02,0.0515562,0.325406
-1.99757e-02,0.0517562,0.324547
-1.99754e-02,0.0513984,0.326359
-1.99750e-02,0.0512359,0.325641
-1.99747e-02,0.0526375,0.326125
-1.99744e-02,0.0513266,0.327656
-1.99741e-02,0.0513687,0.32275
-1.99738e-02,0.0516359,0.326578
-1.99734e-02,0.0516656,0.32575
-1.99731e-02,0.0514187,0.327688
-1.99728e-02,0.0515094,0.326609
-1.99725e-02,0.0516031,0.324641
-1.99722e-02,0.0517234,0.326781
-1.99718e-02,0.0514609,0.330344
-1.99715e-02,0.0517828,0.328203
-1.99712e-02,0.0513578,0.325813
-1.99709e-02,0.0517531,0.329516
-1.99706e-02,0.0514031,0.323688
-1.99702e-02,0.0515109,0.326344
-1.99699e-02,0.0513453,0.328406
-1.99696e-02,0.0516078,0.328109
-1.99693e-02,0.0514766,0.328141
-1.99690e-02,0.0514297,0.327234
-1.99686e-02,0.0514672,0.324375
-1.99683e-02,0.0517062,0.326797
-1.99680e-02,0.0517203,0.327984
-1.99677e-02,0.0514984,0.326109
-1.99674e-02,0.0514437,0.327094
-1.99670e-02,0.0513797,0.327031
-1.99667e-02,0.0511078,0.324906
-1.99664e-02,0.0512375,0.326516
-1.99661e-02,0.0513297,0.327047
-1.99658e-02,0.0512375,0.322734
-1.99654e-02,0.0513328,0.325016
-1.99651e-02,0.0513172,0.324609
-1.99648e-02,0.0513453,0.323828
-1.99645e-02,0.0516531,0.325469
-1.99642e-02,0.0517719,0.322219
-1.99638e-02,0.0514516,0.32625
-1.99635e-02,0.0512656,0.323766
-1.99632e-02,0.0516547,0.328875
-1.99629e-02,0.0512641,0.320453
-1.99626e-02,0.0518109,0.328234
-1.99622e-02,0.0517437,0.321516
-1.99619e-02,0.0518531,0.324469
-1.99616e-02,0.0512656,0.324281
-1.99613e-02,0.0523297,0.324266
-1.99610e-02,0.0519547,0.325063
-1.99606e-02,0.0516422,0.326766
-1.99603e-02,0.0518625,0.323438
-1.99600e-02,0.0510266,0.325297
-1.99597e-02,0.0513469,0.327172
-1.99594e-02,0.0515531,0.328109
-1.99590e-02,0.0514219,0.326281
-1.99587e-02,0.0516953,0.327906
-1.99584e-02,0.0517656,0.324203
-1.99581e-02,0.0515234,0.326047
-1.99578e-02,0.0514484,0.328297
-1.99574e-02,0.0522391,0.323641
-1.99571e-02,0.0515125,0.327875
-1.99568e-02,0.0513484,0.327047
-1.99565e-02,0.0516094,0.324797
-1.99562e-02,0.0515172,0.328078
-1.99558e-02,0.0513812,0.324484
-1.99555e-02,0.0522266,0.328156
-1.99552e-02,0.0516344,0.325859
-1.99549e-02,0.0518078,0.329781
-1.99546e-02,0.0518453,0.324672
-1.99542e-02,0.0518703,0.332266
-1.99539e-02,0.0516031,0.325891
-1.99536e-02,0.0518906,0.328
-1.99533e-02,0.0517437,0.325234
-1.99530e-02,0.0515812,0.325656
-1.99526e-02,0.0514844,0.325203
-1.99523e-02,0.0515422,0.328422
-1.99520e-02,0.0514141,0.325906
-1.99517e-02,0.05155,0.326484
-1.99514e-02,0.0512078,0.324578
-1.99510e-02,0.0515922,0.326219
-1.99507e-02,0.0511641,0.3235
-1.99504e-02,0.0522359,0.327406
-1.99501e-02,0.0517219,0.320641
-1.99498e-02,0.0514437,0.325953
-1.99494e-02,0.0519828,0.324141
-1.99491e-02,0.0516594,0.324344
-1.99488e-02,0.0513062,0.326219
-1.99485e-02,0.0516094,0.325281
-1.99482e-02,0.0513125,0.319516
-1.99478e-02,0.0516469,0.326141
-1.99475e-02,0.0514594,0.326531
-1.99472e-02,0.05095,0.327
-1.99469e-02,0.0515312,0.322563
-1.99466e-02,0.0515453,0.326172
-1.99462e-02,0.05145,0.322828
-1.99459e-02,0.0517922,0.327578
-1.99456e-02,0.0516328,0.322047
-1.99453e-02,0.0512328,0.325906
-1.99450e-02,0.0514891,0.324156
-1.99446e-02,0.0519219,0.321828
-1.99443e-02,0.0514547,0.327406
-1.99440e-02,0.05105,0.325297
-1.99437e-02,0.0514219,0.3275
-1.99434e-02,0.0517187,0.324953
-1.99430e-02,0.0516328,0.327109
-1.99427e-02,0.0518328,0.326906
-1.99424e-02,0.0518344,0.325406
-1.99421e-02,0.0517203,0.328031
-1.99418e-02,0.0517031,0.32575
-1.99414e-02,0.0512375,0.329656
-1.99411e-02,0.0514516,0.323547
-1.99408e-02,0.0513969,0.328703
-1.99405e-02,0.0515828,0.327359
-1.99402e-02,0.0510531,0.326641
-1.99398e-02,0.0518125,0.325719
-1.99395e-02,0.052,0.328359
-1.99392e-02,0.0516766,0.324969
-1.99389e-02,0.0514016,0.327719
-1.99386e-02,0.0515984,0.327438
-1.99382e-02,0.0515984,0.325844
-1.99379e-02,0.0514469,0.32525
-1.99376e-02,0.0516359,0.327953
-1.99373e-02,0.0515578,0.322109
-1.99370e-02,0.0513437,0.327672
-1.99366e-02,0.0514266,0.323453
-1.99363e-02,0.0518187,0.324578
-1.99360e-02,0.0522641,0.327641
-1.99357e-02,0.0516547,0.324656
-1.99354e-02,0.0519516,0.326016
-1.99350e-02,0.0517734,0.326453
-1.99347e-02,0.0515922,0.321672
-1.99344e-02,0.0518594,0.325734
-1.99341e-02,0.0512469,0.323734
-1.99338e-02,0.051125,0.325781
-1.99334e-02,0.0516422,0.322266
-1.99331e-02,0.0517,0.327234
-1.99328e-02,0.0513016,0.320625
-1.99325e-02,0.052075,0.321891
-1.99322e-02,0.0517484,0.326578
-1.99318e-02,0.0516859,0.322328
-1.99315e-02,0.0516172,0.326547
-1.99312e-02,0.052025,0.324609
-1.99309e-02,0.0516016,0.324031
-1.99306e-02,0.0516609,0.324609
-1.99302e-02,0.0514266,0.325188
-1.99299e-02,0.0516469,0.326094
-1.99296e-02,0.0521875,0.323953
-1.99293e-02,0.0513031,0.326781
-1.99290e-02,0.0518078,0.322516
-1.99286e-02,0.0515547,0.327094
-1.99283e-02,0.0518578,0.324547
-1.99280e-02,0.0515203,0.325094
-1.99277e-02,0.0516484,0.328594
-1.99274e-02,0.0515484,0.324891
-1.99270e-02,0.0514047,0.328453
-1.99267e-02,0.0516141,0.325281
-1.99264e-02,0.0515594,0.324875
-1.99261e-02,0.0512266,0.32375
-1.99258e-02,0.0515281,0.330531
-1.99254e-02,0.0510969,0.323641
-1.99251e-02,0.0512922,0.326422
-1.99248e-02,0.0514594,0.327859
-1.99245e-02,0.0516203,0.322844
-1.99242e-02,0.0515781,0.327531
-1.99238e-02,0.0519125,0.325375
-1.99235e-02,0.0517219,0.324469
-1.99232e-02,0.0510812,0.327063
-1.99229e-02,0.0518562,0.324703
-1.99226e-02,0.0512625,0.326203
-1.99222e-02,0.05185,0.324578
-1.99219e-02,0.0514609,0.327281
-1.99216e-02,0.0516187,0.32375
-1.99213e-02,0.0519641,0.326141
-1.99210e-02,0.0515187,0.324156
-1.99206e-02,0.0514906,0.324219
-1.99203e-02,0.05185,0.327484
-1.99200e-02,0.0520109,0.324453
-1.99197e-02,0.0515719,0.319719
-1.99194e-02,0.0515562,0.324922
-1.99190e-02,0.0517391,0.321578
-1.99187e-02,0.0516516,0.327484
-1.99184e-02,0.0517656,0.323016
-1.99181e-02,0.0519219,0.322594
-1.99178e-02,0.0513453,0.322781
-1.99174e-02,0.0514344,0.323234
-1.99171e-02,0.0516172,0.324219
-1.99168e-02,0.0516453,0.324297
-1.99165e-02,0.0512922,0.323703
-1.99162e-02,0.0518312,0.321672
-1.99158e-02,0.0513281,0.323016
-1.99155e-02,0.0515437,0.327688
-1.99152e-02,0.0518984,0.322531
-1.99149e-02,0.0516031,0.326969
-1.99146e-02,0.0515031,0.324297
-1.99142e-02,0.0518094,0.323891
-1.99139e-02,0.0514812,0.325688
-1.99136e-02,0.0513562,0.326141
-1.99133e-02,0.051425,0.323625
-1.99130e-02,0.0510828,0.328172
-1.99126e-02,0.0515047,0.324078
-1.99123e-02,0.0518937,0.326953
-1.99120e-02,0.0515797,0.327453
-1.99117e-02,0.0520281,0.3245
-1.99114e-02,0.0516156,0.325359
-1.99110e-02,0.0516453,0.329344
-1.99107e-02,0.051525,0.325656
-1.99104e-02,0.0516422,0.325844
-1.99101e-02,0.0517203,0.327516
-1.99098e-02,0.0511047,0.326109
-1.99094e-02,0.0522094,0.3255
-1.99091e-02,0.0515812,0.323422
-1.99088e-02,0.0518328,0.322594
-1.99085e-02,0.0515766,0.328969
-1.99082e-02,0.0518266,0.324719
-1.99078e-02,0.0517984,0.325703
-1.99075e-02,0.0516781,0.326469
-1.99072e-02,0.0517547,0.324391
-1.99069e-02,0.0516094,0.328391
-1.99066e-02,0.0518516,0.323609
-1.99062e-02,0.0516594,0.322578
-1.99059e-02,0.0519625,0.327297
-1.99056e-02,0.0520844,0.326078
-1.99053e-02,0.0516109,0.324531
-1.99050e-02,0.051975,0.323234
-1.99046e-02,0.0515562,0.325906
-1.99043e-02,0.0519469,0.322031
-1.99040e-02,0.0511109,0.325016
-1.99037e-02,0.0514969,0.324891
-1.99034e-02,0.051525,0.321438
-1.99030e-02,0.0510562,0.326063
-1.99027e-02,0.0515891,0.32425
-1.99024e-02,0.0512969,0.321234
-1.99021e-02,0.0518219,0.3215
-1.99018e-02,0.0510422,0.324844
-1.99014e-02,0.0512344,0.324719
-1.99011e-02,0.0516437,0.322906
-1.99008e-02,0.0516062,0.323578
-1.99005e-02,0.0511672,0.321469
-1.99002e-02,0.0513297,0.328656
-1.98998e-02,0.0515641,0.322688
-1.98995e-02,0.0519172,0.321578
-1.98992e-02,0.0519484,0.324734
-1.98989e-02,0.0514219,0.322391
-1.98986e-02,0.0516891,0.328359
-1.98982e-02,0.0513516,0.326484
-1.98979e-02,0.0515953,0.327906
-1.98976e-02,0.051625,0.322547
-1.98973e-02,0.0515422,0.325609
-1.98970e-02,0.0514625,0.324938
-1.98966e-02,0.0515516,0.3245
-1.98963e-02,0.0519219,0.327313
-1.98960e-02,0.052125,0.325172
-1.98957e-02,0.0514203,0.324734
-1.98954e-02,0.0518141,0.328484
-1.98950e-02,0.0515078,0.321984
-1.98947e-02,0.0516391,0.329375
-1.98944e-02,0.0517562,0.327375
-1.98941e-02,0.0516125,0.326016
-1.98938e-02,0.051425,0.325797
-1.98934e-02,0.051575,0.327953
-1.98931e-02,0.051725,0.326234
-1.98928e-02,0.0517687,0.325016
-1.98925e-02,0.0513578,0.327281
-1.98922e-02,0.0515516,0.321531
-1.98918e-02,0.0511281,0.329313
-1.98915e-02,0.0516891,0.32
-1.98912e-02,0.0516937,0.323547
-1.98909e-02,0.0517656,0.323953
-1.98906e-02,0.0515328,0.322672
-1.98902e-02,0.0516547,0.324844
-1.98899e-02,0.0515406,0.323656
-1.98896e-02,0.0515312,0.323391
-1.98893e-02,0.0518297,0.324641
-1.98890e-02,0.0515734,0.321125
-1.98886e-02,0.0513234,0.323359
-1.98883e-02,0.0517547,0.323141
-1.98880e-02,0.0519656,0.323406
-1.98877e-02,0.0515969,0.322219
-1.98874e-02,0.0518953,0.322922
-1.98870e-02,0.0513953,0.322531
-1.98867e-02,0.0513312,0.322469
-1.98864e-02,0.0515234,0.326328
-1.98861e-02,0.0517953,0.321438
-1.98858e-02,0.0512047,0.324219
-1.98854e-02,0.0518859,0.322078
-1.98851e-02,0.0517641,0.324
-1.98848e-02,0.0517578,0.325172
-1.98845e-02,0.0518672,0.325469
-1.98842e-02,0.0520031,0.3265
-1.98838e-02,0.0520547,0.321969
-1.98835e-02,0.0511547,0.327516
-1.98832e-02,0.0518453,0.323078
-1.98829e-02,0.0516047,0.326719
-1.98826e-02,0.0519875,0.327531
-1.98822e-02,0.0512484,0.32125
-1.98819e-02,0.0518234,0.329078
-1.98816e-02,0.0519844,0.325156
-1.98813e-02,0.0514641,0.328234
-1.98810e-02,0.0518437,0.325094
-1.98806e-02,0.0515391,0.327188
-1.98803e-02,0.0517078,0.323063
-1.98800e-02,0.0520359,0.326844
-1.98797e-02,0.0517172,0.326281
-1.98794e-02,0.0519531,0.327219
-1.98790e-02,0.0517516,0.325406
-1.98787e-02,0.0518141,0.326234
-1.98784e-02,0.0515031,0.324609
-1.98781e-02,0.0514062,0.3295
-1.98778e-02,0.0519266,0.324031
-1.98774e-02,0.0517641,0.326188
-1.98771e-02,0.0514984,0.326984
-1.98768e-02,0.0513078,0.327656
-1.98765e-02,0.0513953,0.324188
-1.98762e-02,0.0514203,0.324875
-1.98758e-02,0.0516844,0.322469
-1.98755e-02,0.0514062,0.325391
-1.98752e-02,0.0517859,0.324438
-1.98749e-02,0.0514922,0.321406
-1.98746e-02,0.0516906,0.329313
-1.98742e-02,0.0513297,0.325938
-1.98739e-02,0.0518875,0.319156
-1.98736e-02,0.0514016,0.326281
-1.98733e-02,0.0516594,0.320125
-1.98730e-02,0.0515656,0.324078
-1.98726e-02,0.0514766,0.323047
-1.98723e-02,0.0517922,0.32375
-1.98720e-02,0.0516156,0.321969
-1.98717e-02,0.0515187,0.325656
-1.98714e-02,0.0517047,0.321203
-1.98710e-02,0.0513469,0.322313
-1.98707e-02,0.0515312,0.324203
-1.98704e-02,0.0515094,0.320859
-1.98701e-02,0.0520234,0.326156
-1.98698e-02,0.0512437,0.323922
-1.98694e-02,0.0517359,0.324969
-1.98691e-02,0.0516531,0.324406
-1.98688e-02,0.0513328,0.324797
-1.98685e-02,0.0518812,0.325078
-1.98682e-02,0.0515,0.325641
-1.98678e-02,0.0518406,0.325703
-1.98675e-02,0.0513531,0.324109
-1.98672e-02,0.0517203,0.325938
-1.98669e-02,0.0515484,0.327625
-1.98666e-02,0.0516766,0.32325
-1.98662e-02,0.0513609,0.327641
-1.98659e-02,0.0518453,0.324844
-1.98656e-02,0.0515031,0.322922
-1.98653e-02,0.0519547,0.327328
-1.98650e-02,0.0517609,0.325156
-1.98646e-02,0.0517969,0.326109
-1.98643e-02,0.0519172,0.325031
-1.98640e-02,0.0516344,0.322578
-1.98637e-02,0.0518828,0.324266
-1.98634e-02,0.0520391,0.327484
-1.98630e-02,0.0516812,0.325625
-1.98627e-02,0.0514844,0.324625
-1.98624e-02,0.0519062,0.327938
-1.98621e-02,0.0516297,0.322547
-1.98618e-02,0.0522047,0.328406
-1.98614e-02,0.051125,0.324313
-1.98611e-02,0.0515141,0.322406
-1.98608e-02,0.0515891,0.325453
-1.98605e-02,0.0514156,0.321813
-1.98602e-02,0.0514125,0.323375
-1.98598e-02,0.0518766,0.321391
-1.98595e-02,0.0516,0.323875
-1.98592e-02,0.0516437,0.320203
-1.98589e-02,0.0514281,0.324641
-1.98586e-02,0.0515609,0.322609
-1.98582e-02,0.0517437,0.322016
-1.98579e-02,0.0515703,0.323734
-1.98576e-02,0.0514109,0.322266
-1.98573e-02,0.0519266,0.324328
-1.98570e-02,0.0524656,0.325266
-1.98566e-02,0.0518359,0.317328
-1.98563e-02,0.0513016,0.325109
-1.98560e-02,0.0518516,0.324922
-1.98557e-02,0.0515437,0.321234
-1.98554e-02,0.0512953,0.323016
-1.98550e-02,0.0512031,0.322375
-1.98547e-02,0.0512672,0.323625
-1.98544e-02,0.0515906,0.325344
-1.98541e-02,0.0518219,0.325109
-1.98538e-02,0.0513828,0.321047
-1.98534e-02,0.0514781,0.326172
-1.98531e-02,0.0515156,0.324781
-1.98528e-02,0.0516844,0.325094
-1.98525e-02,0.0512797,0.328906
-1.98522e-02,0.0510781,0.323484
-1.98518e-02,0.0515812,0.327891
-1.98515e-02,0.0512266,0.323625
-1.98512e-02,0.0515562,0.326688
-1.98509e-02,0.0517453,0.323563
-1.98506e-02,0.0512344,0.330094
-1.98502e-02,0.0513078,0.323109
-1.98499e-02,0.0513297,0.325641
-1.98496e-02,0.0515391,0.32875
-1.98493e-02,0.0518594,0.323063
-1.98490e-02,0.0515594,0.327141
-1.98486e-02,0.05145,0.328969
-1.98483e-02,0.0517453,0.324313
-1.98480e-02,0.051525,0.325906
-1.98477e-02,0.0513641,0.325625
-1.98474e-02,0.0514625,0.324469
-1.98470e-02,0.0517016,0.323859
-1.98467e-02,0.0512625,0.324891
-1.98464e-02,0.0520094,0.324547
-1.98461e-02,0.0511547,0.323953
-1.98458e-02,0.0514328,0.323875
-1.98454e-02,0.0515031,0.322
-1.98451e-02,0.0517062,0.326141
-1.98448e-02,0.0509516,0.321938
-1.98445e-02,0.0513031,0.323875
-1.98442e-02,0.0512141,0.323547
-1.98438e-02,0.0509906,0.322125
-1.98435e-02,0.0517266,0.322594
-1.98432e-02,0.0513187,0.323781
-1.98429e-02,0.0514156,0.323234
-1.98426e-02,0.0512016,0.322641
-1.98422e-02,0.0515687,0.324266
-1.98419e-02,0.0516375,0.322484
-1.98416e-02,0.0515625,0.323922
-1.98413e-02,0.0516937,0.321063
-1.98410e-02,0.0517266,0.321641
-1.98406e-02,0.0517344,0.324906
-1.98403e-02,0.0513672,0.320531
-1.98400e-02,0.0515516,0.322469
-1.98397e-02,0.0513687,0.323375
-1.98394e-02,0.0515,0.324469
-1.98390e-02,0.0516969,0.325609
-1.98387e-02,0.0516391,0.321547
-1.98384e-02,0.051475,0.328031
-1.98381e-02,0.0515781,0.324438
-1.98378e-02,0.0514453,0.323953
-1.98374e-02,0.0517828,0.325906
-1.98371e-02,0.0513,0.322813
-1.98368e-02,0.0517828,0.327234
-1.98365e-02,0.0514125,0.323344
-1.98362e-02,0.0514516,0.326297
-1.98358e-02,0.0520516,0.325516
-1.98355e-02,0.0517859,0.323828
-1.98352e-02,0.0512437,0.327094
-1.98349e-02,0.0517234,0.323094
-1.98346e-02,0.0515344,0.326688
-1.98342e-02,0.0513203,0.324219
-1.98339e-02,0.0517094,0.327281
-1.98336e-02,0.0512594,0.322953
-1.98333e-02,0.0515266,0.325688
-1.98330e-02,0.0512672,0.32525
-1.98326e-02,0.0516719,0.322531
-1.98323e-02,0.0515266,0.323281
-1.98320e-02,0.0515328,0.322516
-1.98317e-02,0.0511891,0.324406
-1.98314e-02,0.0510453,0.323406
-1.98310e-02,0.0512453,0.32725
-1.98307e-02,0.0517141,0.322719
-1.98304e-02,0.0512984,0.326031
-1.98301e-02,0.0515078,0.322781
-1.98298e-02,0.0512406,0.321984
-1.98294e-02,0.0518391,0.325594
-1.98291e-02,0.0516109,0.322344
-1.98288e-02,0.0516391,0.320297
-1.98285e-02,0.0517516,0.324984
-1.98282e-02,0.0517031,0.317828
-1.98278e-02,0.0516828,0.325359
-1.98275e-02,0.0517078,0.319938
-1.98272e-02,0.0514172,0.323984
-1.98269e-02,0.0511031,0.324047
-1.98266e-02,0.0514719,0.321734
-1.98262e-02,0.0512359,0.321625
-1.98259e-02,0.0513484,0.323719
-1.98256e-02,0.0508141,0.322422
-1.98253e-02,0.0511656,0.323594
-1.98250e-02,0.0512594,0.326031
-1.98246e-02,0.0511094,0.323594
-1.98243e-02,0.0512578,0.323063
-1.98240e-02,0.0515203,0.325828
-1.98237e-02,0.0516062,0.321469
-1.98234e-02,0.0520266,0.325016
-1.98230e-02,0.0520203,0.322531
-1.98227e-02,0.0516406,0.323953
-1.98224e-02,0.0514703,0.325984
-1.98221e-02,0.0520875,0.322594
-1.98218e-02,0.0516141,0.326875
-1.98214e-02,0.0517906,0.324766
-1.98211e-02,0.0518578,0.325344
-1.98208e-02,0.0514125,0.322
-1.98205e-02,0.0515484,0.328328
-1.98202e-02,0.0515125,0.326578
-1.98198e-02,0.0515219,0.323547
-1.98195e-02,0.0512844,0.3265
-1.98192e-02,0.0515391,0.327313
-1.98189e-02,0.0512016,0.324969
-1.98186e-02,0.0515953,0.325906
-1.98182e-02,0.0515844,0.323391
-1.98179e-02,0.0514578,0.324531
-1.98176e-02,0.0516125,0.323703
-1.98173e-02,0.0517953,0.323422
-1.98170e-02,0.0516484,0.321859
-1.98166e-02,0.0516328,0.325516
-1.98163e-02,0.0513828,0.323516
-1.98160e-02,0.0515187,0.322109
-1.98157e-02,0.0517203,0.323766
-1.98154e-02,0.0511672,0.323688
-1.98150e-02,0.0515891,0.323969
-1.98147e-02,0.0514844,0.322469
-1.98144e-02,0.0516437,0.32275
-1.98141e-02,0.0516234,0.3215
-1.98138e-02,0.0514,0.322719
-1.98134e-02,0.0518359,0.322688
-1.98131e-02,0.0512859,0.323672
-1.98128e-02,0.0514062,0.32375
-1.98125e-02,0.0515172,0.320203
-1.98122e-02,0.0511187,0.323641
-1.98118e-02,0.0516125,0.324141
-1.98115e-02,0.0512687,0.320547
-1.98112e-02,0.0518719,0.324625
-1.98109e-02,0.0515875,0.322031
-1.98106e-02,0.0518562,0.323734
-1.98102e-02,0.0516125,0.321234
-1.98099e-02,0.0519187,0.324422
-1.98096e-02,0.0513609,0.321859
-1.98093e-02,0.0516203,0.322984
-1.98090e-02,0.0518766,0.321984
-1.98086e-02,0.0518891,0.324625
-1.98083e-02,0.0514172,0.325078
-1.98080e-02,0.0514828,0.321359
-1.98077e-02,0.0518203,0.324281
-1.98074e-02,0.0514937,0.325438
-1.98070e-02,0.0519297,0.322328
-1.98067e-02,0.0513266,0.327031
-1.98064e-02,0.0516531,0.323781
-1.98061e-02,0.0517391,0.322594
-1.98058e-02,0.0516328,0.326297
-1.98054e-02,0.0510422,0.323813
-1.98051e-02,0.0513781,0.326344
-1.98048e-02,0.0516328,0.324344
-1.98045e-02,0.0512766,0.325938
-1.98042e-02,0.0515953,0.323156
-1.98038e-02,0.0513312,0.327813
-1.98035e-02,0.0516875,0.321281
-1.98032e-02,0.05205,0.323953
-1.98029e-02,0.0513125,0.325484
-1.98026e-02,0.0514109,0.321141
-1.98022e-02,0.0511078,0.325516
